[gd_scene load_steps=5 format=2]

[ext_resource path="res://Art/bg_green.png" type="Texture" id=1]
[ext_resource path="res://scripts/BackPanel.gd" type="Script" id=2]
[ext_resource path="res://Snd/chop.ogg" type="AudioStream" id=3]

[sub_resource type="RectangleShape2D" id=1]
extents = Vector2( 128, 128 )

[node name="BackPanel" type="Node2D"]
position = Vector2( 130.309, 0 )
script = ExtResource( 2 )

[node name="Sprite" type="Sprite" parent="."]
texture = ExtResource( 1 )

[node name="Area2D" type="Area2D" parent="Sprite"]

[node name="CollisionShape2D" type="CollisionShape2D" parent="Sprite/Area2D"]
shape = SubResource( 1 )

[node name="AudioStreamPlayer" type="AudioStreamPlayer" parent="."]
stream = ExtResource( 3 )
