[gd_scene load_steps=3 format=2]

[ext_resource path="res://scripts/SpawnNode.gd" type="Script" id=1]
[ext_resource path="res://scenes/StickTarget.tscn" type="PackedScene" id=2]

[node name="SpawnNode" type="Position2D"]
script = ExtResource( 1 )
Respawns = 2
target_rotation = -90
target_end_rotation = 90
life_time = 5.0
respawn_time = 2.0
delay = 0.01
Target = ExtResource( 2 )

[node name="LifeTime" type="Timer" parent="."]
one_shot = true

[node name="Respawn" type="Timer" parent="."]
one_shot = true

[node name="DelayTime" type="Timer" parent="."]
one_shot = true
[connection signal="timeout" from="LifeTime" to="." method="_on_LifeTime_timeout"]
[connection signal="timeout" from="Respawn" to="." method="_on_Respawn_timeout"]
[connection signal="timeout" from="DelayTime" to="." method="_on_DelayTime_timeout"]
